{
    "data": [
      {
        "id": 8263,
        "model_type": "App\\Project",
        "model_id": 11,
        "collection_name": "default",
        "name": "quack",
        "public_url": "/assets/img/pic1.png",
        "file_name": "quack.jpg",
        "mime_type": "image/jpeg",
        "disk": "public_main",
        "size": 3358176,
        "manipulations": "[]",
        "custom_properties": "[]",
        "responsive_images": "[]",
        "order_column": 743,
        "created_at": "2020-09-23 11:12:42",
        "updated_at": "2020-09-23 11:12:42"
      },
      {
        "id": 8264,
        "model_type": "App\\Project",
        "model_id": 11,
        "collection_name": "default",
        "name": "quack1",
        "public_url": "/assets/img/pic2.png",
        "file_name": "quack.jpg",
        "mime_type": "image/jpeg",
        "disk": "public_main",
        "size": 3358176,
        "manipulations": "[]",
        "custom_properties": "[]",
        "responsive_images": "[]",
        "order_column": 743,
        "created_at": "2020-09-23 11:12:42",
        "updated_at": "2020-09-23 11:12:42"
      },
      {
        "id": 8265,
        "model_type": "App\\Project",
        "model_id": 11,
        "collection_name": "default",
        "name": "quack2",
        "public_url": "/assets/img/pic3.png",
        "file_name": "quack.jpg",
        "mime_type": "image/jpeg",
        "disk": "public_main",
        "size": 3358176,
        "manipulations": "[]",
        "custom_properties": "[]",
        "responsive_images": "[]",
        "order_column": 743,
        "created_at": "2020-09-23 11:12:42",
        "updated_at": "2020-09-23 11:12:42"
      },
      {
        "id": 8266,
        "model_type": "App\\Project",
        "model_id": 11,
        "collection_name": "default",
        "name": "quack10",
        "public_url": "/assets/img/pic4.png",
        "file_name": "quack.jpg",
        "mime_type": "image/jpeg",
        "disk": "public_main",
        "size": 3358176,
        "manipulations": "[]",
        "custom_properties": "[]",
        "responsive_images": "[]",
        "order_column": 743,
        "created_at": "2020-09-23 11:12:42",
        "updated_at": "2020-09-23 11:12:42"
      },
      {
        "id": 8267,
        "model_type": "App\\Project",
        "model_id": 11,
        "collection_name": "default",
        "name": "quack3",
        "public_url": "/assets/img/pic5.png",
        "file_name": "quack.jpg",
        "mime_type": "image/jpeg",
        "disk": "public_main",
        "size": 3358176,
        "manipulations": "[]",
        "custom_properties": "[]",
        "responsive_images": "[]",
        "order_column": 743,
        "created_at": "2020-09-23 11:12:42",
        "updated_at": "2020-09-23 11:12:42"
      },
      {
        "id": 8268,
        "model_type": "App\\Project",
        "model_id": 11,
        "collection_name": "default",
        "name": "Item 1",
        "public_url": "/assets/img/pic6.png",
        "file_name": "T-cell8221.png",
        "mime_type": "image/png",
        "disk": "public_main",
        "size": 521087,
        "manipulations": "[]",
        "custom_properties": "[]",
        "responsive_images": "[]",
        "order_column": 25,
        "created_at": "2020-04-21 11:11:08",
        "updated_at": "2020-04-21 11:11:08"
      },
      {
        "id": 8269,
        "model_type": "App\\Project",
        "model_id": 11,
        "collection_name": "default",
        "name": "Item 2",
        "public_url": "/assets/img/pic7.png",
        "file_name": "T-cell8221.png",
        "mime_type": "image/png",
        "disk": "public_main",
        "size": 521087,
        "manipulations": "[]",
        "custom_properties": "[]",
        "responsive_images": "[]",
        "order_column": 25,
        "created_at": "2020-04-21 11:11:08",
        "updated_at": "2020-04-21 11:11:08"
      },
      {
        "id": 8270,
        "model_type": "App\\Project",
        "model_id": 11,
        "collection_name": "default",
        "name": "Item 3",
        "public_url": "/assets/img/pic8.png",
        "file_name": "T-cell8221.png",
        "mime_type": "image/png",
        "disk": "public_main",
        "size": 521087,
        "manipulations": "[]",
        "custom_properties": "[]",
        "responsive_images": "[]",
        "order_column": 25,
        "created_at": "2020-04-21 11:11:08",
        "updated_at": "2020-04-21 11:11:08"
      },
      {
        "id": 8271,
        "model_type": "App\\Project",
        "model_id": 11,
        "collection_name": "default",
        "name": "Item 4",
        "public_url": "/assets/img/pic9.png",
        "file_name": "T-cell8221.png",
        "mime_type": "image/png",
        "disk": "public_main",
        "size": 521087,
        "manipulations": "[]",
        "custom_properties": "[]",
        "responsive_images": "[]",
        "order_column": 25,
        "created_at": "2020-04-21 11:11:08",
        "updated_at": "2020-04-21 11:11:08"
      },
      {
        "id": 8272,
        "model_type": "App\\Project",
        "model_id": 11,
        "collection_name": "default",
        "name": "Item 5",
        "public_url": "/assets/img/pic10.png",
        "file_name": "T-cell8221.png",
        "mime_type": "image/png",
        "disk": "public_main",
        "size": 521087,
        "manipulations": "[]",
        "custom_properties": "[]",
        "responsive_images": "[]",
        "order_column": 25,
        "created_at": "2020-04-21 11:11:08",
        "updated_at": "2020-04-21 11:11:08"
      },
      {
        "id": 8273,
        "model_type": "App\\Project",
        "model_id": 11,
        "collection_name": "default",
        "name": "Item 6",
        "file_name": "T-cell8221.png",
        "public_url": "/assets/img/pic11.png",
        "mime_type": "image/png",
        "disk": "public_main",
        "size": 521087,
        "manipulations": "[]",
        "custom_properties": "[]",
        "responsive_images": "[]",
        "order_column": 25,
        "created_at": "2020-04-21 11:11:08",
        "updated_at": "2020-04-21 11:11:08"
      },
      {
        "id": 8274,
        "model_type": "App\\Project",
        "model_id": 11,
        "collection_name": "default",
        "name": "Item 7",
        "public_url": "/assets/img/pic12.png",
        "file_name": "T-cell8221.png",
        "mime_type": "image/png",
        "disk": "public_main",
        "size": 521087,
        "manipulations": "[]",
        "custom_properties": "[]",
        "responsive_images": "[]",
        "order_column": 25,
        "created_at": "2020-04-21 11:11:08",
        "updated_at": "2020-04-21 11:11:08"
      },
      {
        "id": 8275,
        "model_type": "App\\Project",
        "model_id": 11,
        "collection_name": "default",
        "name": "One",
        "public_url": "/assets/img/pic13.png",
        "file_name": "T-cell8221.png",
        "mime_type": "image/png",
        "disk": "public_main",
        "size": 521087,
        "manipulations": "[]",
        "custom_properties": "[]",
        "responsive_images": "[]",
        "order_column": 25,
        "created_at": "2020-04-21 11:11:08",
        "updated_at": "2020-04-21 11:11:08"
      },
      {
        "id": 8276,
        "model_type": "App\\Project",
        "model_id": 11,
        "collection_name": "default",
        "name": "Two",
        "public_url": "/assets/img/pic14.png",
        "file_name": "T-cell8221.png",
        "mime_type": "image/png",
        "disk": "public_main",
        "size": 521087,
        "manipulations": "[]",
        "custom_properties": "[]",
        "responsive_images": "[]",
        "order_column": 25,
        "created_at": "2020-04-21 11:11:08",
        "updated_at": "2020-04-21 11:11:08"
      },
      {
        "id": 8277,
        "model_type": "App\\Project",
        "model_id": 11,
        "collection_name": "default",
        "name": "Three",
        "public_url": "/assets/img/pic15.png",
        "file_name": "T-cell8221.png",
        "mime_type": "image/png",
        "disk": "public_main",
        "size": 521087,
        "manipulations": "[]",
        "custom_properties": "[]",
        "responsive_images": "[]",
        "order_column": 25,
        "created_at": "2020-04-21 11:11:08",
        "updated_at": "2020-04-21 11:11:08"
      },
      {
        "id": 8278,
        "model_type": "App\\Project",
        "model_id": 11,
        "collection_name": "default",
        "name": "Four",
        "public_url": "/assets/img/pic16.png",
        "file_name": "T-cell8221.png",
        "mime_type": "image/png",
        "disk": "public_main",
        "size": 521087,
        "manipulations": "[]",
        "custom_properties": "[]",
        "responsive_images": "[]",
        "order_column": 25,
        "created_at": "2020-04-21 11:11:08",
        "updated_at": "2020-04-21 11:11:08"
      },
      {
        "id": 8279,
        "model_type": "App\\Project",
        "model_id": 11,
        "collection_name": "default",
        "name": "five",
        "public_url": "/assets/img/pic17.png",
        "file_name": "T-cell8221.png",
        "mime_type": "image/png",
        "disk": "public_main",
        "size": 521087,
        "manipulations": "[]",
        "custom_properties": "[]",
        "responsive_images": "[]",
        "order_column": 25,
        "created_at": "2020-04-21 11:11:08",
        "updated_at": "2020-04-21 11:11:08"
      },
      {
        "id": 8280,
        "model_type": "App\\Project",
        "model_id": 11,
        "collection_name": "default",
        "name": "Six",
        "public_url": "/assets/img/pic18.png",
        "file_name": "T-cell8221.png",
        "mime_type": "image/png",
        "disk": "public_main",
        "size": 521087,
        "manipulations": "[]",
        "custom_properties": "[]",
        "responsive_images": "[]",
        "order_column": 25,
        "created_at": "2020-04-21 11:11:08",
        "updated_at": "2020-04-21 11:11:08"
      }
    ],
    "current_page": 1,
    "first_page_url": "http://localhost:8080/api/item.json?page=1",
    "from": 1,
    "to": 18,
    "last_page": 3,
    "last_page_url": "http://localhost:8080/api/item3.json?page=3",
    "next_page_url": "http://localhost:8080/api/item2.json?page=2",
    "path": "http://localhost:8080/api/item.json",
    "per_page": 36,
    "prev_page_url": null,
    "total": 54
}