{
    "data": [
      {
        "id": 9363,
        "model_type": "App\\Project",
        "model_id": 11,
        "collection_name": "default",
        "name": "quack",
        "public_url": "/assets/dummy/apple.png",
        "file_name": "quack.jpg",
        "mime_type": "image/jpeg",
        "disk": "public_main",
        "size": 3359176,
        "manipulations": "[]",
        "custom_properties": "[]",
        "responsive_images": "[]",
        "order_column": 743,
        "created_at": "2020-09-23 11:12:42",
        "updated_at": "2020-09-23 11:12:42"
      },
      {
        "id": 9364,
        "model_type": "App\\Project",
        "model_id": 11,
        "collection_name": "default",
        "name": "quack1",
        "public_url": "/assets/dummy/crown.png",
        "file_name": "quack.jpg",
        "mime_type": "image/jpeg",
        "disk": "public_main",
        "size": 3359176,
        "manipulations": "[]",
        "custom_properties": "[]",
        "responsive_images": "[]",
        "order_column": 743,
        "created_at": "2020-09-23 11:12:42",
        "updated_at": "2020-09-23 11:12:42"
      },
      {
        "id": 9365,
        "model_type": "App\\Project",
        "model_id": 11,
        "collection_name": "default",
        "name": "quack2",
        "public_url": "/assets/dummy/flower.png",
        "file_name": "quack.jpg",
        "mime_type": "image/jpeg",
        "disk": "public_main",
        "size": 3359176,
        "manipulations": "[]",
        "custom_properties": "[]",
        "responsive_images": "[]",
        "order_column": 743,
        "created_at": "2020-09-23 11:12:42",
        "updated_at": "2020-09-23 11:12:42"
      },
      {
        "id": 9366,
        "model_type": "App\\Project",
        "model_id": 11,
        "collection_name": "default",
        "name": "quack10",
        "public_url": "/assets/dummy/hen.jpg",
        "file_name": "quack.jpg",
        "mime_type": "image/jpeg",
        "disk": "public_main",
        "size": 3359176,
        "manipulations": "[]",
        "custom_properties": "[]",
        "responsive_images": "[]",
        "order_column": 743,
        "created_at": "2020-09-23 11:12:42",
        "updated_at": "2020-09-23 11:12:42"
      },
      {
        "id": 9367,
        "model_type": "App\\Project",
        "model_id": 11,
        "collection_name": "default",
        "name": "quack3",
        "public_url": "/assets/dummy/parrot.png",
        "file_name": "quack.jpg",
        "mime_type": "image/jpeg",
        "disk": "public_main",
        "size": 3359176,
        "manipulations": "[]",
        "custom_properties": "[]",
        "responsive_images": "[]",
        "order_column": 743,
        "created_at": "2020-09-23 11:12:42",
        "updated_at": "2020-09-23 11:12:42"
      },
      {
        "id": 9369,
        "model_type": "App\\Project",
        "model_id": 11,
        "collection_name": "default",
        "name": "Item 1",
        "public_url": "/assets/dummy/pig.png",
        "file_name": "T-cell9321.png",
        "mime_type": "image/png",
        "disk": "public_main",
        "size": 521097,
        "manipulations": "[]",
        "custom_properties": "[]",
        "responsive_images": "[]",
        "order_column": 25,
        "created_at": "2020-04-21 11:11:09",
        "updated_at": "2020-04-21 11:11:09"
      },
      {
        "id": 9369,
        "model_type": "App\\Project",
        "model_id": 11,
        "collection_name": "default",
        "name": "Item 2",
        "public_url": "/assets/dummy/tree.png",
        "file_name": "T-cell9321.png",
        "mime_type": "image/png",
        "disk": "public_main",
        "size": 521097,
        "manipulations": "[]",
        "custom_properties": "[]",
        "responsive_images": "[]",
        "order_column": 25,
        "created_at": "2020-04-21 11:11:09",
        "updated_at": "2020-04-21 11:11:09"
      },
      {
        "id": 9370,
        "model_type": "App\\Project",
        "model_id": 11,
        "collection_name": "default",
        "name": "Item 3",
        "public_url": "/assets/dummy/apple.png",
        "file_name": "T-cell9321.png",
        "mime_type": "image/png",
        "disk": "public_main",
        "size": 521097,
        "manipulations": "[]",
        "custom_properties": "[]",
        "responsive_images": "[]",
        "order_column": 25,
        "created_at": "2020-04-21 11:11:09",
        "updated_at": "2020-04-21 11:11:09"
      },
      {
        "id": 9371,
        "model_type": "App\\Project",
        "model_id": 11,
        "collection_name": "default",
        "name": "Item 4",
        "public_url": "/assets/dummy/crown.png",
        "file_name": "T-cell9321.png",
        "mime_type": "image/png",
        "disk": "public_main",
        "size": 521097,
        "manipulations": "[]",
        "custom_properties": "[]",
        "responsive_images": "[]",
        "order_column": 25,
        "created_at": "2020-04-21 11:11:09",
        "updated_at": "2020-04-21 11:11:09"
      },
      {
        "id": 9372,
        "model_type": "App\\Project",
        "model_id": 11,
        "collection_name": "default",
        "name": "Item 5",
        "public_url": "/assets/dummy/flower.png",
        "file_name": "T-cell9321.png",
        "mime_type": "image/png",
        "disk": "public_main",
        "size": 521097,
        "manipulations": "[]",
        "custom_properties": "[]",
        "responsive_images": "[]",
        "order_column": 25,
        "created_at": "2020-04-21 11:11:09",
        "updated_at": "2020-04-21 11:11:09"
      },
      {
        "id": 9373,
        "model_type": "App\\Project",
        "model_id": 11,
        "collection_name": "default",
        "name": "Item 6",
        "file_name": "T-cell9321.png",
        "mime_type": "image/png",
        "disk": "public_main",
        "size": 521097,
        "manipulations": "[]",
        "custom_properties": "[]",
        "responsive_images": "[]",
        "order_column": 25,
        "created_at": "2020-04-21 11:11:09",
        "updated_at": "2020-04-21 11:11:09"
      },
      {
        "id": 9374,
        "model_type": "App\\Project",
        "model_id": 11,
        "collection_name": "default",
        "name": "Item 7",
        "public_url": "/assets/dummy/parrot.png",
        "file_name": "T-cell9321.png",
        "mime_type": "image/png",
        "disk": "public_main",
        "size": 521097,
        "manipulations": "[]",
        "custom_properties": "[]",
        "responsive_images": "[]",
        "order_column": 25,
        "created_at": "2020-04-21 11:11:09",
        "updated_at": "2020-04-21 11:11:09"
      },
      {
        "id": 9375,
        "model_type": "App\\Project",
        "model_id": 11,
        "collection_name": "default",
        "name": "One",
        "public_url": "/assets/dummy/pig.png",
        "file_name": "T-cell9321.png",
        "mime_type": "image/png",
        "disk": "public_main",
        "size": 521097,
        "manipulations": "[]",
        "custom_properties": "[]",
        "responsive_images": "[]",
        "order_column": 25,
        "created_at": "2020-04-21 11:11:09",
        "updated_at": "2020-04-21 11:11:09"
      },
      {
        "id": 9376,
        "model_type": "App\\Project",
        "model_id": 11,
        "collection_name": "default",
        "name": "Two",
        "public_url": "/assets/dummy/tree.png",
        "file_name": "T-cell9321.png",
        "mime_type": "image/png",
        "disk": "public_main",
        "size": 521097,
        "manipulations": "[]",
        "custom_properties": "[]",
        "responsive_images": "[]",
        "order_column": 25,
        "created_at": "2020-04-21 11:11:09",
        "updated_at": "2020-04-21 11:11:09"
      },
      {
        "id": 9377,
        "model_type": "App\\Project",
        "model_id": 11,
        "collection_name": "default",
        "name": "Three",
        "public_url": "/assets/dummy/tree.png",
        "file_name": "T-cell9321.png",
        "mime_type": "image/png",
        "disk": "public_main",
        "size": 521097,
        "manipulations": "[]",
        "custom_properties": "[]",
        "responsive_images": "[]",
        "order_column": 25,
        "created_at": "2020-04-21 11:11:09",
        "updated_at": "2020-04-21 11:11:09"
      },
      {
        "id": 9379,
        "model_type": "App\\Project",
        "model_id": 11,
        "collection_name": "default",
        "name": "Four",
        "public_url": "/assets/dummy/tree.png",
        "file_name": "T-cell9321.png",
        "mime_type": "image/png",
        "disk": "public_main",
        "size": 521097,
        "manipulations": "[]",
        "custom_properties": "[]",
        "responsive_images": "[]",
        "order_column": 25,
        "created_at": "2020-04-21 11:11:09",
        "updated_at": "2020-04-21 11:11:09"
      },
      {
        "id": 9379,
        "model_type": "App\\Project",
        "model_id": 11,
        "collection_name": "default",
        "name": "five",
        "public_url": "/assets/dummy/tree.png",
        "file_name": "T-cell9321.png",
        "mime_type": "image/png",
        "disk": "public_main",
        "size": 521097,
        "manipulations": "[]",
        "custom_properties": "[]",
        "responsive_images": "[]",
        "order_column": 25,
        "created_at": "2020-04-21 11:11:09",
        "updated_at": "2020-04-21 11:11:09"
      },
      {
        "id": 9390,
        "model_type": "App\\Project",
        "model_id": 11,
        "collection_name": "default",
        "name": "Six",
        "public_url": "/assets/dummy/tree.png",
        "file_name": "T-cell9321.png",
        "mime_type": "image/png",
        "disk": "public_main",
        "size": 521097,
        "manipulations": "[]",
        "custom_properties": "[]",
        "responsive_images": "[]",
        "order_column": 25,
        "created_at": "2020-04-21 11:11:09",
        "updated_at": "2020-04-21 11:11:09"
      }
    ],
    "current_page": 3,
    "first_page_url": "http://localhost:8080/api/item.json?page=1",
    "from": 37,
    "to": 54,
    "last_page": 3,
    "last_page_url": "http://localhost:8080/api/item3.json?page=3",
    "next_page_url": null,
    "path": "http://localhost:8080/api/item3.json",
    "per_page": 36,
    "prev_page_url": "http://localhost:8080/api/item2.json?page=2",
    "total": 54
}